{
  "disk_usage": {
    "series": [44, 55, 13, 33],
    "labels": ["Storage", "Applications", "System files", "Free space"]
  },
  "ram_usage": {
    "series": [44, 80, 23, 10, 7],
    "labels": ["Firefox", "Unused", "ChubascOS", "Network", "Virtualbox"]
  }
}
